<?xml version="1.0" encoding="UTF-8" standalone="no"?>
<!-- Created with Inkscape (http://www.inkscape.org/) -->

<svg
   width="100"
   height="100"
   viewBox="0 0 26.458333 26.458334"
   version="1.1"
   inkscape:version="1.1.2 (0a00cf5339, 2022-02-04)"
   id="svg19"
   sodipodi:docname="logo.svg"
   inkscape:export-filename="/home/nicolas/Projets/Programming/Softwares/encre-org/pochoir/.assets/logo.png"
   inkscape:export-xdpi="1000"
   inkscape:export-ydpi="1000"
   xmlns:inkscape="http://www.inkscape.org/namespaces/inkscape"
   xmlns:sodipodi="http://sodipodi.sourceforge.net/DTD/sodipodi-0.dtd"
   xmlns="http://www.w3.org/2000/svg"
   xmlns:svg="http://www.w3.org/2000/svg">
  <sodipodi:namedview
     id="namedview23"
     pagecolor="#ffffff"
     bordercolor="#999999"
     borderopacity="1"
     inkscape:pageshadow="0"
     inkscape:pageopacity="0"
     inkscape:pagecheckerboard="0"
     showgrid="false"
     inkscape:zoom="6.5091556"
     inkscape:cx="43.630851"
     inkscape:cy="49.622412"
     inkscape:window-width="1920"
     inkscape:window-height="1051"
     inkscape:window-x="1366"
     inkscape:window-y="0"
     inkscape:window-maximized="1"
     inkscape:current-layer="layer1" />
  <defs
     id="defs2">
    <inkscape:path-effect
       effect="mirror_symmetry"
       start_point="13,3.31"
       end_point="13,23.15"
       center_point="10.522577,13.229167"
       id="path-effect2986"
       is_visible="true"
       lpeversion="1.1"
       mode="free"
       discard_orig_path="false"
       fuse_paths="false"
       oposite_fuse="false"
       split_items="true"
       split_open="false" />
    <filter
       style="color-interpolation-filters:sRGB;"
       inkscape:label="Drop Shadow"
       id="filter3178"
       x="-0.1102092"
       y="-0.10818829"
       width="1.2663389"
       height="1.261455">
      <feFlood
         flood-opacity="0.8"
         flood-color="rgb(0,0,0)"
         result="flood"
         id="feFlood3168" />
      <feComposite
         in="flood"
         in2="SourceGraphic"
         operator="out"
         result="composite1"
         id="feComposite3170" />
      <feGaussianBlur
         in="composite1"
         stdDeviation="2"
         result="blur"
         id="feGaussianBlur3172" />
      <feOffset
         dx="2"
         dy="2"
         result="offset"
         id="feOffset3174" />
      <feComposite
         in="offset"
         in2="SourceGraphic"
         operator="atop"
         result="composite2"
         id="feComposite3176" />
    </filter>
    <filter
       style="color-interpolation-filters:sRGB;"
       inkscape:label="Drop Shadow"
       id="filter3989"
       x="-0.081066517"
       y="-0.080169897"
       width="1.1959108"
       height="1.1937439">
      <feFlood
         flood-opacity="0.6"
         flood-color="rgb(0,0,0)"
         result="flood"
         id="feFlood3979" />
      <feComposite
         in="flood"
         in2="SourceGraphic"
         operator="out"
         result="composite1"
         id="feComposite3981" />
      <feGaussianBlur
         in="composite1"
         stdDeviation="2"
         result="blur"
         id="feGaussianBlur3983" />
      <feOffset
         dx="2"
         dy="2"
         result="offset"
         id="feOffset3985" />
      <feComposite
         in="offset"
         in2="SourceGraphic"
         operator="atop"
         result="composite2"
         id="feComposite3987" />
    </filter>
    <filter
       style="color-interpolation-filters:sRGB;"
       inkscape:label="Drop Shadow"
       id="filter2942"
       x="-0.066523803"
       y="-0.024188976"
       width="1.2023432"
       height="1.048378">
      <feFlood
         flood-opacity="0.290196"
         flood-color="rgb(0,0,0)"
         result="flood"
         id="feFlood2932" />
      <feComposite
         in="flood"
         in2="SourceGraphic"
         operator="out"
         result="composite1"
         id="feComposite2934" />
      <feGaussianBlur
         in="composite1"
         stdDeviation="0.2"
         result="blur"
         id="feGaussianBlur2936" />
      <feOffset
         dx="0.5"
         dy="1.38778e-16"
         result="offset"
         id="feOffset2938" />
      <feComposite
         in="offset"
         in2="SourceGraphic"
         operator="atop"
         result="composite2"
         id="feComposite2940" />
    </filter>
  </defs>
  <g
     inkscape:label="Calque 1"
     inkscape:groupmode="layer"
     id="layer1">
    <rect
       style="fill:#15151d;fill-opacity:1;fill-rule:evenodd;stroke-width:0.263881"
       id="rect868"
       width="26.458334"
       height="26.458334"
       x="-2.3455812e-07"
       y="-2.3455812e-07"
       ry="2.6447494"
       inkscape:export-filename="/home/nicolas/Projets/Programming/Softwares/encre-org/pochoir/.assets/rect868.png"
       inkscape:export-xdpi="1000"
       inkscape:export-ydpi="1000" />
    <path
       fill="currentColor"
       d="m 10.705934,7.2760422 c 0,-1.0959405 0.80776,-1.9843759 1.804184,-1.9843755 1.20237,-4.599e-4 1.20237,-1.9848349 0,-1.984375 -1.992846,-4e-7 -3.6083683,1.7768699 -3.6083681,3.9687505 v 2.9765618 c 5e-7,1.09594 -0.8077603,1.984376 -1.8041838,1.984376 -1.2015108,0.0014 -1.2015108,1.98297 0,1.984374 0.9964235,0 1.8041843,0.888436 1.8041838,1.984376 v 2.976562 c 10e-8,2.19188 1.6155221,3.96875 3.6083681,3.96875 1.200982,-0.002 1.200982,-1.982388 0,-1.984373 -0.996424,0 -1.804185,-0.888436 -1.804184,-1.984377 V 16.20573 C 10.700074,15.062659 10.24638,13.977874 9.4610468,13.229169 10.246381,12.480463 10.70007,11.395677 10.705934,10.252604 Z"
       id="path1004"
       style="fill:#ffffff;fill-opacity:1;stroke-width:0.946068;filter:url(#filter2942)"
       sodipodi:nodetypes="sccssccssccscccs" />
    <path
       fill="currentColor"
       d="m 17.055936,7.2760414 c 0,-1.0959405 0.807762,-1.9843759 1.804186,-1.9843755 1.20237,-4.599e-4 1.20237,-1.9848349 0,-1.984375 -1.992848,-4e-7 -3.608371,1.7768699 -3.608371,3.9687505 v 2.9765626 c 10e-7,1.09594 -0.807761,1.984376 -1.804184,1.984376 -1.201512,0.0014 -1.201512,1.98297 0,1.984374 0.996423,0 1.804185,0.888436 1.804184,1.984376 v 2.976562 c 0,2.19188 1.615523,3.96875 3.608371,3.96875 1.200982,-0.002 1.200982,-1.982388 0,-1.984373 -0.996425,0 -1.804187,-0.888436 -1.804186,-1.984377 V 16.20573 c -0.0059,-1.143071 -0.459554,-2.227856 -1.244888,-2.976561 0.785335,-0.748706 1.239024,-1.833492 1.244888,-2.976565 z"
       id="path3450"
       style="fill:#ffffff;fill-opacity:1;stroke-width:0.946068;filter:url(#filter2942)"
       sodipodi:nodetypes="sccssccssccscccs" />
  </g>
</svg>
